%YAML 1.1
%TAG !u! tag:unity3d.com,2011:
--- !u!114 &11400000
MonoBehaviour:
  m_ObjectHideFlags: 0
  m_PrefabParentObject: {fileID: 0}
  m_PrefabInternal: {fileID: 0}
  m_GameObject: {fileID: 0}
  m_Enabled: 1
  m_EditorHideFlags: 0
  m_Script: {fileID: 11500000, guid: a1e9edb729927df4e94258a83af9de57, type: 3}
  m_Name: Intro Scene
  m_EditorClassIdentifier: 
  list:
  - messages:
    - So... You've decided to finally show your face.
    - What is it you plan to do here today?
    - Do you have a death wish?
    speaker: {fileID: 21300000, guid: 4c392503e6a04a041bd0513acefbc66f, type: 3}
    anchor: 2
  - messages:
    - Silence you abomination.
    - I'm here to put an end to your torture of the village people.
    speaker: {fileID: 21300000, guid: 4903d1dacf20f5b4389a55f9b35943b5, type: 3}
    anchor: 6
  - messages:
    - I will enjoy watching you suffer as all the others have.
    - Go my minions. Bring me another "recruit" for my army.
    speaker: {fileID: 21300000, guid: 4c392503e6a04a041bd0513acefbc66f, type: 3}
    anchor: 2
